greedy,linear,1,0.8,,74486.729157641646,1.0,1,1,266.16074545157608,False,0.13153767663174598,0.00030474899945383271,1241.445485960694,4.4360124241928816,0.39665381317236764,0.02
elastic,linear,1,0.8,,181854.6248026932,1.0,1,1,371.22246966406237,False,0.13244120007971338,3.3560170509178144e-05,3030.9104133782203,6.187041161067782,0.96843568351994969,0.02
short,linear,1,0.8,,74806.478894809683,1.0,1,1,272.58710473915562,False,0.13334567804550909,0.00029791540572135511,1246.7746482468281,4.5431184123192452,0.39835637382021954,0.02
priority,linear,1,0.8,,71934.710815308877,1.0,1,1,346.84081820190477,False,0.13354608168149634,6.4484365518854836e-05,1198.9118469218147,5.7806803033651022,0.38306121757540967,0.02
greedy,linear,1,0.8,,43803.806899623713,1.0,1,1,279.37174365438477,True,0.067944904724235186,0.00025231515204370003,730.06344832706191,4.6561957275731061,0.23325864055951517,0.02
elastic,linear,1,0.8,,123889.51518133911,1.0,1,1,137.26641863140685,True,0.069009915409075265,0.00023884085158333568,2064.8252530223185,2.2877736438567808,0.65974073521620924,0.02
short,linear,1,0.8,,42899.113712724968,1.0,1,1,234.4524480402506,True,0.070113158488102623,0.00021208755155418396,714.98522854541602,3.9075408006708017,0.22844225140233998,0.02
priority,linear,1,0.8,,42283.464461116535,1.0,1,1,244.50004490030551,True,0.070213145029012797,0.00025765576181818739,704.72440768527554,4.0750007483384252,0.22516345358108802,0.02
greedy,linear,1,0.8,,32765.274330242497,1.0,1,1,900.6545289967944,False,0.12921309816018214,0.00045770240663312034,546.0879055040416,15.01090881661321,0.43978729759287727,0.05
elastic,linear,1,0.8,,106568.07160523674,1.0,1,1,2337.4971777030369,False,0.12924592885489911,0.00047108324711778171,1776.1345267539455,38.958286295050584,1.43064427945002,0.05
short,linear,1,0.8,,33284.870620165682,1.0,1,1,1048.1194054257867,False,0.12950254932012162,0.00055184727813509249,554.74784366942799,17.468656757096426,0.44670540931602765,0.05
priority,linear,1,0.8,,32626.124224336665,1.0,1,1,958.25276609353023,False,0.12960059936475082,0.00058057372132148954,543.76873707227776,15.97087943489214,0.43789370325152677,0.05
greedy,linear,1,0.8,,17769.68358256491,1.0,1,1,568.13388813538586,True,0.065403662238528892,0.00011758184288874346,296.1613930427485,9.4688981355897681,0.23847752362450481,0.05
elastic,linear,1,0.8,,61447.469623055847,1.0,1,1,1352.7859632525833,True,0.065576852243527356,9.1230210865565764e-05,1024.1244937175975,22.546432720876396,0.82491168442119822,0.05
short,linear,1,0.8,,17684.021030713215,1.0,1,1,533.69273375784178,True,0.066107597879666274,0.0001454569881796583,294.73368384522024,8.894878895964041,0.23734124491533959,0.05
priority,linear,1,0.8,,17571.622517003343,1.0,1,1,514.25287182913416,True,0.06608860809382737,0.00017419402779168813,292.86037528338903,8.5708811971522323,0.23583947838739425,0.05
greedy,linear,1,0.8,,16929.782467597302,1.0,1,1,765.11197636608176,False,0.12868016509971403,0.00029923115254947008,282.16304112662169,12.751866272768012,0.46081726214107677,0.1
elastic,linear,1,0.8,,60820.591129575158,1.0,1,1,1543.7899477488136,False,0.12868016509971403,0.00029923115254947008,1013.6765188262525,25.72983246248026,1.6568700768523794,0.1
short,linear,1,0.8,,17090.54473748993,1.0,1,1,760.58909467270314,False,0.12875280393377236,0.00022659231849113393,284.84241229149887,12.67648491121173,0.46520655135821393,0.1
priority,linear,1,0.8,,16912.78275586772,1.0,1,1,710.84479264435868,False,0.12875280393377236,0.00022659231849113393,281.87971259779533,11.847413210739319,0.46041557574694703,0.1
greedy,linear,1,0.8,,8828.5976968970135,1.0,1,1,371.92102167056328,True,0.064803569549057305,1.1178572168313305e-05,147.14329494828357,6.1986836945093842,0.24033936090458374,0.1
elastic,linear,1,0.8,,33066.581555325349,1.0,1,1,1213.1240246670259,True,0.064803736901852066,1.1345924963067355e-05,551.10969258875582,20.218733744450446,0.90037093000012758,0.1
short,linear,1,0.8,,8822.6392583047163,1.0,1,1,382.11604323559914,True,0.065109465081042081,0.00017393501221230068,147.04398763841195,6.3686007205933208,0.24016523801215361,0.1
priority,linear,1,0.8,,8786.5966973630602,1.0,1,1,376.57874227003504,True,0.065071578460652701,0.00013604839182292106,146.44327828938435,6.2763123711672506,0.23918864273455176,0.1
greedy,linear,1,0.8,,8307.0744268121362,1.0,1,1,372.68343820889049,False,0.12833937510639035,0.00020451289282452656,138.45124044686895,6.2113906368148406,0.46751467924721346,0.2
elastic,linear,1,0.8,,31683.318192612871,1.0,1,1,1001.1765134095658,False,0.12833937510639035,0.00020451289282452656,528.05530321021456,16.6862752234928,1.7837501930008073,0.2
short,linear,1,0.8,,8352.5449404531882,1.0,1,1,376.6443941803077,False,0.12840095890420589,0.00014292909500900064,139.20908234088648,6.2774065696717969,0.47007078632816984,0.2
priority,linear,1,0.8,,8303.0499235559328,1.0,1,1,372.21289393949064,False,0.12840095890420589,0.00014292909500900064,138.38416539259885,6.2035482323248488,0.46728862651606262,0.2
greedy,linear,1,0.8,,4239.6492938402762,1.0,1,1,184.21681220400367,True,0.06417493851063602,0.00015832364431499907,70.660821564004607,3.0702802034000598,0.23861279148927006,0.2
elastic,linear,1,0.8,,16555.271432497022,1.0,1,1,828.71760176456246,True,0.06417493851063602,0.00015832364431499907,275.92119054161702,13.811960029409363,0.93158451677689413,0.2
short,linear,1,0.8,,4242.5250317595564,1.0,1,1,191.16885332460765,True,0.064274131504602761,5.9130650348258873e-05,70.708750529325954,3.1861475554101233,0.23876421958032001,0.2
priority,linear,1,0.8,,4233.3468962551542,1.0,1,1,190.51920978912608,True,0.064241994228551674,9.1267926399338228e-05,70.555781604252559,3.1753201631521009,0.23824804551033069,0.2
greedy,linear,1,0.8,,1746.6614679473698,1.0,1,1,50.814425472301309,False,0.12871447810468406,0.0008442670304811134,29.111024465789498,0.84690709120502206,0.48848047827989016,1.0
elastic,linear,1,0.8,,6759.5208951318091,1.0,1,1,265.97039942497804,False,0.12871447810468406,0.0008442670304811134,112.65868158553016,4.4328399904162978,1.8897059117424426,1.0
short,linear,1,0.8,,1746.2054132405178,1.0,1,1,50.358370765449195,False,0.12871447810468406,0.0008442670304811134,29.103423554008629,0.83930617942415253,0.48835738803473772,1.0
priority,linear,1,0.8,,1739.5689223031738,1.0,1,1,43.72187982810533,False,0.12871447810468406,0.0008442670304811134,28.992815371719566,0.72869799713508776,0.48656618341793056,1.0
greedy,linear,1,0.8,,878.73106730301697,1.0,1,1,27.523353358644954,True,0.064186147334123811,0.0003320842523776707,14.645517788383618,0.45872255597741596,0.24573082574793959,1.0
elastic,linear,1,0.8,,3402.7522699071515,1.0,1,1,136.53868485725729,True,0.064186147334123811,0.0003320842523776707,56.712537831785852,2.2756447476209551,0.95125396332465839,1.0
short,linear,1,0.8,,879.05250529686043,1.0,1,1,27.844791352488414,True,0.064186147334123811,0.0003320842523776707,14.650875088281008,0.46407985587480649,0.24581758262352721,1.0
priority,linear,1,0.8,,878.73106730301697,1.0,1,1,27.523353358644954,True,0.064186147334123811,0.0003320842523776707,14.645517788383618,0.45872255597741596,0.24573082574793959,1.0
