short,linear,1,0.8,,508.35158725782856,2.05,2,2,244.48902992946532
short,linear,1,0.8,,930.29494546840817,1.6888888888888889,3,3,294.8323300141667
short,linear,1,0.8,,1029.509732178773,1.05,4,4,228.63904914999677
short,linear,1,0.8,,1426.2201801000615,0.6444444444444445,6,6,255.46867081725389
short,linear,1,0.8,,2185.3219502067559,0.575,8,8,494.32191681612153
greedy,linear,1,0.8,,545.57109669032866,2.2,2,2,216.16689258064659
greedy,linear,1,0.8,,868.24591118395767,1.5777777777777777,3,3,282.44470046565556
greedy,linear,1,0.8,,1191.0817727590315,1.225,4,4,377.22147348139561
greedy,linear,1,0.8,,1414.2406628646768,0.6444444444444445,6,6,347.91767811259029
greedy,linear,1,0.8,,2122.910412822735,0.55625,8,8,378.71811800620839
elastic,linear,1,0.8,,1516.9886348114037,6.65,2,2,385.71597619325223
elastic,linear,1,0.8,,1667.3871957314964,3.3111111111111113,3,3,783.78829837465423
elastic,linear,1,0.8,,2057.6202797137544,2.425,4,4,570.48720654257363
elastic,linear,1,0.8,,2881.2218960905711,1.6888888888888889,6,6,492.69894419962054
elastic,linear,1,0.8,,3290.7094513460165,1.05625,8,8,360.62973880501147
